\relax 
\catcode`"\active
\citation{GRASS}
\citation{RCC}
\citation{GEN}
\citation{RCC}
\select@language{english}
\@writefile{toc}{\select@language{english}}
\@writefile{lof}{\select@language{english}}
\@writefile{lot}{\select@language{english}}
\select@language{english}
\@writefile{toc}{\select@language{english}}
\@writefile{lof}{\select@language{english}}
\@writefile{lot}{\select@language{english}}
\select@language{english}
\@writefile{toc}{\select@language{english}}
\@writefile{lof}{\select@language{english}}
\@writefile{lot}{\select@language{english}}
\select@language{slovene}
\@writefile{toc}{\select@language{slovene}}
\@writefile{lof}{\select@language{slovene}}
\@writefile{lot}{\select@language{slovene}}
\@writefile{toc}{\contentsline {section}{\numberline {1}Uvod}{1}}
\@writefile{toc}{\contentsline {section}{\numberline {2}GRASS GIS}{1}}
\@writefile{lof}{\contentsline {figure}{\numberline {1}{\ignorespaces Blokovna shema delovanja}}{1}}
\newlabel{slika}{{1}{1}}
\@writefile{toc}{\contentsline {section}{\numberline {3}Genetski algoritem}{1}}
\@writefile{toc}{\contentsline {section}{\numberline {4}Potek optimizacije}{1}}
\bibcite{GRASS}{1}
\bibcite{RCC}{2}
\bibcite{OH}{3}
\bibcite{GEN}{4}
\bibcite{LTE}{5}
\@writefile{toc}{\contentsline {section}{\numberline {5}Delni rezultati}{2}}
\@writefile{lof}{\contentsline {figure}{\numberline {2}{\ignorespaces Prikaz pokritosti terena pred in po optimizaciji}}{2}}
\newlabel{grass}{{2}{2}}
\@writefile{lof}{\contentsline {figure}{\numberline {3}{\ignorespaces Verjetnostna porazdelitev(pdf) sprejete mo\IeC {\v c}i za originalen in optimiziran zasuk antene}}{2}}
\newlabel{graf}{{3}{2}}
\@writefile{lof}{\contentsline {figure}{\numberline {4}{\ignorespaces Prikaz pokritosti in interference GSM postaj za zahodno Ljubljano}}{2}}
\newlabel{zadnja}{{4}{2}}
\@writefile{toc}{\contentsline {section}{\numberline {6}Zaklju\IeC {\v c}ek}{2}}
